<svg width="648" height="463" viewBox="0 0 648 463" fill="none" xmlns="http://www.w3.org/2000/svg">
  <style>
    .standford:hover{
        opacity: 0.5;
    }

    .microsoft:hover{
        fill: blue;
    }
  </style>

  <symbol width="148" height="392" viewBox="0 0 148 392" fill="none" id="standford">
    <path d="M49.1865 65.9129C44.5912 76.4592 29.2198 78.3663 24.119 88.6368C20.6955 95.5298 23.3607 104.284 28.7143 109.798C34.0679 115.313 41.5812 118.231 49.0027 120.276C65.5458 124.871 83.4676 125.859 99.804 120.804C105.713 119.145 111.198 116.238 115.888 112.28C120.659 108.214 123.645 102.439 124.205 96.1961C124.45 93.1203 123.842 90.0364 122.448 87.2839C121.053 84.5313 118.926 82.2168 116.301 80.595C113.039 78.7799 109.064 78.2973 106.283 75.724C102.171 72.0477 102.24 65.7291 102.4 60.2147C102.696 49.9267 102.174 39.6313 100.838 29.426C99.804 21.5451 98.1037 13.3424 92.7732 7.41443C89.7634 4.32044 85.9894 2.07678 81.8335 0.910696C77.6775 -0.255388 73.2872 -0.302481 69.1072 0.774186C64.9247 1.94434 61.0417 3.99782 57.7202 6.79612C54.3987 9.59442 51.7159 13.0725 49.8528 16.9957C46.1921 24.9328 45.2317 33.8504 47.1186 42.3849C48.7499 50.2429 52.3343 58.5374 49.1865 65.9129Z" fill="#DC5955"/>
    <path d="M32.0689 250.967V271.278C32.0689 271.278 23.7514 299.608 22.6944 306.065C21.8443 311.303 20.3968 358.153 19.9602 375.776C19.8453 379.889 28.7373 377.959 28.7373 377.959L29.2887 375.776L73.1281 197.247L74.0932 375.776C74.0932 375.776 83.2838 380.096 84.2259 375.776C88.3157 357.831 98.862 311.281 99.3904 306.065C100.057 299.608 97.0928 271.278 97.0928 271.278L101.688 250.967L81.7214 182.588L32.0689 250.967Z" fill="#E48868"/>
    <path d="M19.8683 375.776C19.7534 379.889 19.6845 382.416 19.6845 382.416L5.55383 391.882H27.6114L28.7602 377.959L29.3117 375.776H19.8683Z" fill="#62309A"/>
    <path d="M84.1339 375.776H74.0012V391.86H94.2896L82.4337 382.669C82.4337 382.669 83.1459 380.095 84.1339 375.776Z" fill="#62309A"/>
    <path d="M39.5133 66.6711C32.2068 71.0827 1.46404 105.548 0.0394907 109.706C-1.38506 113.865 36.2047 160.255 36.2047 160.255L41.5812 150.881L20.9023 114.991L45.0277 87.1893L39.5133 66.6711Z" fill="#E48868"/>
    <path d="M109.753 68.0957C117.014 72.5761 146.033 105.548 147.435 109.706C148.836 113.865 111.269 160.255 111.269 160.255L105.87 150.881L126.549 114.991L102.469 87.1893L109.753 68.0957Z" fill="#E48868"/>
    <path d="M32.2068 213.032L32.023 250.967H101.55L110.58 210.804C117.22 165.471 95.3236 137.899 95.3236 137.899L102.722 105.364C109.385 99.0683 109.753 89.0965 109.753 84.685V68.0958C109.753 68.0958 80.182 53.6665 73.5647 53.6665C66.9474 53.6665 39.5133 66.6713 39.5133 66.6713V84.3633C37.2157 97.2991 47.2794 105.8 47.2794 105.8L53.1844 137.968C53.1844 137.968 25.6814 173.949 32.2068 213.032Z" fill="#62309A"/>
    <path d="M67.5678 41.397V57.4806C67.5678 57.4806 75.8164 71.4045 83.3757 57.8023L82.7554 41.397H67.5678Z" fill="#E48868"/>
    <path d="M70.8994 2.72726C56.8607 4.63432 54.632 20.718 57.9866 33.5849C60.514 43.1432 66.2352 52.7933 75.242 52.5636C84.2489 52.3338 89.6484 40.0183 91.3257 32.482C93.8531 20.3274 93.3706 -0.213751 70.8994 2.72726Z" fill="#E48868"/>
    <path d="M59.7787 30.0463C59.7787 30.0463 59.2503 24.6698 54.9077 26.4619C50.5651 28.2541 55.8727 40.2479 60.6748 38.9612C65.4769 37.6745 59.7787 30.0463 59.7787 30.0463Z" fill="#E48868"/>
    <path d="M88.4766 29.7707C88.4766 29.7707 88.6374 24.3712 93.0719 25.8417C97.5064 27.3122 93.0719 39.7655 88.2238 38.7316C83.3758 37.6976 88.4766 29.7707 88.4766 29.7707Z" fill="#E48868"/>
    <path d="M75.288 53.253C73.143 53.2538 71.0354 52.6913 69.1762 51.6216C69.0414 51.5152 68.9496 51.3636 68.9177 51.1948C68.8858 51.0259 68.9161 50.8513 69.0028 50.703C69.0895 50.5547 69.2269 50.4428 69.3897 50.3878C69.5524 50.3329 69.7296 50.3386 69.8884 50.4039C71.6496 51.4123 73.6562 51.9118 75.6847 51.8469C77.7131 51.782 79.6836 51.1552 81.3768 50.0362C81.5291 49.9326 81.7164 49.8938 81.8973 49.9283C82.0783 49.9628 82.2382 50.0677 82.3418 50.2201C82.4454 50.3724 82.4842 50.5597 82.4497 50.7406C82.4153 50.9216 82.3103 51.0815 82.158 51.1851C80.1313 52.5565 77.7349 53.2779 75.288 53.253Z" fill="#BA745D"/>
    <path d="M82.2728 11.5273C82.7035 20.1162 80.6621 28.6484 76.3908 36.1123C74.211 39.8098 71.2145 42.9598 67.6303 45.3213C64.0462 47.6829 59.9694 49.1934 55.7119 49.7375C52.3586 42.4249 50.8517 34.4011 51.3233 26.3702C51.654 22.3949 52.7926 18.5288 54.6692 15.0087C56.5458 11.4886 59.121 8.38843 62.2372 5.89804C65.4063 3.47105 69.1949 1.98558 73.169 1.61174C77.1432 1.23789 81.1422 1.99078 84.7084 3.78419C87.5405 5.57542 89.9773 7.9257 91.8697 10.6912C93.7621 13.4567 95.0702 16.5793 95.7142 19.8678C96.9938 25.3377 97.3817 30.9783 96.863 36.5718C87.2128 31.3332 80.9172 22.5101 82.2728 11.5273Z" fill="#DC5955"/>
    <path d="M105.87 150.949C105.87 150.949 103.572 145.711 102.952 145.826C100.493 147.977 98.2749 150.389 96.3346 153.017C95.9899 153.821 97.1617 155.453 97.1617 155.453L99.4594 154.304L100.378 157.544H102.561C102.561 157.544 100.264 159.175 100.378 160.324C100.428 160.672 100.575 161 100.802 161.268C101.03 161.537 101.329 161.735 101.665 161.84L105.089 159.749L107.639 164.345L111.361 160.278L105.87 150.949Z" fill="#E48868"/>
    <path d="M101.573 162.53H101.366C100.9 162.384 100.485 162.107 100.172 161.732C99.858 161.358 99.6587 160.901 99.5973 160.416C99.638 159.591 100.001 158.816 100.608 158.256H100.287C100.136 158.253 99.9911 158.202 99.8714 158.111C99.7517 158.021 99.6638 157.894 99.6202 157.751L98.9309 155.453L97.4834 156.211C97.3337 156.288 97.1616 156.31 96.9975 156.272C96.8335 156.234 96.6882 156.139 96.5873 156.004C96.2657 155.545 95.2317 153.982 95.7142 152.88C95.7578 152.703 95.8691 152.551 96.0239 152.457C96.1788 152.362 96.3647 152.332 96.5414 152.374C96.7098 152.45 96.8423 152.588 96.9109 152.759C96.9795 152.931 96.9788 153.122 96.909 153.293C96.9305 153.74 97.0822 154.172 97.3456 154.534L98.9769 153.684C99.0684 153.633 99.1712 153.607 99.2756 153.607C99.38 153.607 99.4828 153.633 99.5743 153.684C99.6684 153.722 99.7524 153.781 99.8201 153.857C99.8878 153.932 99.9374 154.023 99.9649 154.12L100.746 156.877H102.4C102.551 156.87 102.701 156.912 102.825 156.998C102.949 157.084 103.042 157.208 103.089 157.352C103.136 157.495 103.135 157.65 103.085 157.793C103.035 157.936 102.94 158.058 102.814 158.141C101.872 158.808 100.884 159.864 100.93 160.278C100.944 160.445 101 160.607 101.092 160.747C101.185 160.887 101.31 161.003 101.458 161.082L104.583 159.175C104.739 159.082 104.925 159.053 105.101 159.096C105.278 159.139 105.43 159.25 105.525 159.405C105.575 159.483 105.609 159.57 105.624 159.661C105.64 159.753 105.637 159.846 105.615 159.936C105.594 160.026 105.554 160.111 105.5 160.186C105.445 160.26 105.375 160.323 105.295 160.37L101.872 162.461C101.778 162.505 101.677 162.528 101.573 162.53Z" fill="#BA745D"/>
    <path d="M41.6271 150.949C41.6271 150.949 43.9248 145.711 44.5452 145.826C47.0093 147.972 49.2285 150.383 51.1624 153.017C51.5071 153.821 50.3353 155.453 50.3353 155.453L48.0376 154.304L47.1185 157.544H44.8209C44.8209 157.544 47.1185 159.175 47.1185 160.324C47.0694 160.672 46.9225 161 46.6947 161.268C46.467 161.537 46.1678 161.735 45.8319 161.84L42.4083 159.749L39.8809 164.345L36.1587 160.278L41.6271 150.949Z" fill="#E48868"/>
    <path d="M45.9928 162.53C45.8804 162.564 45.7605 162.564 45.6481 162.53L42.2016 160.439C42.0454 160.339 41.934 160.183 41.8911 160.003C41.8482 159.823 41.8772 159.633 41.9719 159.474C42.075 159.322 42.2312 159.214 42.4098 159.172C42.5884 159.129 42.7764 159.155 42.9369 159.244L46.0617 161.151C46.2037 161.064 46.3248 160.947 46.4162 160.808C46.5076 160.669 46.567 160.512 46.5902 160.347C46.5902 159.933 45.6251 158.876 44.7061 158.21C44.5817 158.127 44.4875 158.006 44.4378 157.865C44.388 157.725 44.3854 157.571 44.4304 157.429C44.4748 157.287 44.5636 157.164 44.6836 157.077C44.8037 156.99 44.9485 156.944 45.0967 156.946H46.751L47.5322 154.189C47.5638 154.09 47.6169 153.999 47.6875 153.922C47.7582 153.846 47.8447 153.786 47.9411 153.746C48.0375 153.707 48.1414 153.689 48.2454 153.694C48.3494 153.699 48.4511 153.727 48.5432 153.776L50.1745 154.626C50.4472 154.235 50.5917 153.769 50.5881 153.293C50.5519 153.209 50.5327 153.118 50.5316 153.026C50.5304 152.934 50.5474 152.843 50.5816 152.757C50.6157 152.672 50.6663 152.594 50.7305 152.528C50.7947 152.463 50.8712 152.41 50.9557 152.374C51.0402 152.338 51.131 152.319 51.2229 152.317C51.3148 152.316 51.4061 152.333 51.4914 152.367C51.5767 152.402 51.6545 152.452 51.7203 152.516C51.7861 152.581 51.8386 152.657 51.8748 152.742C52.3343 153.822 51.3004 155.407 50.9787 155.866C50.8779 156.001 50.7325 156.096 50.5685 156.134C50.4045 156.172 50.2323 156.15 50.0826 156.073L48.6351 155.315L47.9458 157.613C47.9091 157.76 47.823 157.891 47.7018 157.983C47.5806 158.075 47.4315 158.123 47.2795 158.118H46.9578C47.2625 158.392 47.509 158.724 47.6826 159.095C47.8563 159.466 47.9536 159.869 47.9688 160.278C47.913 160.765 47.7156 161.224 47.4011 161.6C47.0867 161.976 46.6689 162.251 46.1996 162.392L45.9928 162.53Z" fill="#BA745D"/>
  </symbol>

  <symbol width="133" height="393" viewBox="0 0 133 393" fill="none" id="microsoft">
    <path d="M107.248 192.565L68.4406 199.136L29.6101 192.565L29.2885 381.203H38.2264L68.096 212.486L70.8072 381.203H79.7681C79.7681 381.203 95.3463 310.205 96.0126 303.749C96.6789 297.292 93.7149 277.303 93.7149 277.303L107.248 192.565Z" fill="#62309A"/>
    <path d="M37.9736 55.4633C37.9736 55.4633 40.6159 29.9362 44.1084 16.9544C47.6008 3.97262 61.3638 -0.622704 69.7963 0.0665948C78.2287 0.755894 94.2204 4.36323 94.3813 24.0542C94.3887 34.9896 95.3264 45.9046 97.1844 56.681L37.9736 55.4633Z" fill="#62309A"/>
    <path d="M41.1674 103.461L45.9696 135.422C33.2405 154.125 26.4624 182.317 22.9929 203.961H115.681C107.524 155.274 89.2116 135.629 89.2116 135.629L96.5181 103.094C103.158 96.8211 103.549 86.8263 103.549 82.4147V65.7567C103.549 65.7567 73.9551 51.3503 67.3148 51.3503C60.6746 51.3503 33.4013 64.4011 33.4013 64.4011V82.139C31.1726 94.96 41.1674 103.461 41.1674 103.461Z" fill="#ECE0D3"/>
    <path d="M45.3262 189.026L47.8536 57.8298C47.8536 57.8298 33.1256 61.5291 28.6222 65.7568C24.1188 69.9845 13.9401 146.382 12.9062 169.358C12.7683 172.116 15.8012 178.549 15.8012 178.549C15.6174 181.697 15.4336 185.212 15.2038 189.003L45.3262 189.026Z" fill="#DE6879"/>
    <path d="M96.3573 102.979C96.2372 103.013 96.1098 103.013 95.9897 102.979C95.8334 102.879 95.7221 102.723 95.6792 102.543C95.6363 102.363 95.6652 102.173 95.7599 102.014C98.0071 98.3707 99.3543 94.2448 99.6899 89.9775C100.026 85.7102 99.34 81.4244 97.6899 77.4748C97.6396 77.3833 97.6133 77.2805 97.6133 77.1761C97.6133 77.0717 97.6396 76.9689 97.6899 76.8774C98.2184 75.8434 98.7009 74.7406 99.2064 73.6377C99.7119 72.5348 100.24 71.34 100.792 70.3061C100.831 70.2245 100.886 70.1517 100.954 70.0921C101.022 70.0325 101.101 69.9873 101.187 69.9594C101.273 69.9314 101.364 69.9213 101.454 69.9295C101.544 69.9378 101.631 69.9643 101.711 70.0074C101.793 70.0487 101.866 70.106 101.926 70.1761C101.986 70.2462 102.031 70.3275 102.059 70.4153C102.087 70.5031 102.097 70.5957 102.088 70.6874C102.08 70.7791 102.053 70.8682 102.01 70.9494C101.481 71.9834 100.976 73.1092 100.47 74.2121C99.9646 75.315 99.551 76.257 99.0685 77.2221C100.737 81.3469 101.413 85.8061 101.042 90.2402C100.671 94.6742 99.2628 98.959 96.9317 102.749C96.8594 102.828 96.7702 102.89 96.6707 102.93C96.5713 102.969 96.4641 102.986 96.3573 102.979Z" fill="#393762"/>
    <path d="M61.4557 41.7461V57.9906C61.4557 57.9906 69.7044 71.9144 77.2637 58.3352L76.5974 41.7461H61.4557Z" fill="#E48868"/>
    <path d="M64.7874 3.1915C50.7487 5.02963 48.497 21.2282 51.8745 34.0491C54.402 43.5844 60.1231 53.2346 69.107 53.0048C78.0909 52.7751 83.5363 40.4826 85.1906 32.9233C87.741 20.7456 87.3275 0.227512 64.7874 3.1915Z" fill="#E48868"/>
    <path d="M53.5518 30.4877C53.5518 30.4877 53.0004 25.1342 48.6808 26.9264C44.3612 28.7185 49.6228 40.7123 54.4479 39.4256C59.273 38.1389 53.5518 30.4877 53.5518 30.4877Z" fill="#E48868"/>
    <path d="M82.3645 30.235C82.3645 30.235 82.5253 24.8355 86.9598 26.306C91.3943 27.7765 86.9598 40.2299 82.1118 39.1959C77.2637 38.162 82.3645 30.235 82.3645 30.235Z" fill="#E48868"/>
    <path d="M83.835 7.18924C82.7111 6.72767 81.5114 6.47838 80.2966 6.45398C80.1693 6.02089 79.9576 5.61726 79.6737 5.26631C79.3897 4.91536 79.0392 4.62402 78.6423 4.40906C73.7483 1.74377 62.1221 2.1114 57.0442 4.40906C51.9664 6.70673 45.9695 16.1501 44.6828 21.4347C43.3961 26.7194 44.6828 33.2218 46.1074 38.9659C46.2029 39.8118 46.4703 40.6292 46.8931 41.368C47.3158 42.1069 47.8851 42.7516 48.5659 43.2625C49.9175 43.7917 51.419 43.7917 52.7706 43.2625C60.6485 41.2237 67.8068 37.0401 73.4496 31.1768C74.2699 30.3368 75.0373 29.4467 75.7472 28.5116C77.7166 33.9064 81.1063 38.6694 85.5582 42.2975C86.014 42.7654 86.6293 43.0443 87.2815 43.0787C88.2925 43.0787 88.9128 41.9759 89.3494 41.0338C91.162 37.6746 92.2868 33.9878 92.658 30.1888C92.7959 26.4896 87.3274 8.75165 83.835 7.18924Z" fill="#62309A"/>
    <path d="M69.1759 53.6941C67.0291 53.7093 64.9178 53.1458 63.0641 52.0628C62.9101 51.9674 62.7982 51.8168 62.7512 51.6418C62.7042 51.4668 62.7258 51.2805 62.8114 51.1207C62.9071 50.9606 63.0618 50.8445 63.2422 50.7972C63.4227 50.75 63.6145 50.7754 63.7764 50.868C65.5416 51.8638 67.5463 52.3561 69.572 52.2913C71.5977 52.2265 73.5667 51.607 75.2647 50.5004C75.4184 50.4013 75.6043 50.3651 75.784 50.3993C75.9636 50.4335 76.1232 50.5355 76.2297 50.6842C76.3288 50.8379 76.365 51.0238 76.3308 51.2035C76.2966 51.3831 76.1946 51.5427 76.0459 51.6492C74.0111 53.0008 71.6186 53.7129 69.1759 53.6941Z" fill="#BA745D"/>
    <path d="M117.059 189.026C116.875 185.971 116.715 183.121 116.554 180.479C117.51 176.711 118.14 172.867 118.438 168.991C117.381 146.014 108.144 69.9846 103.641 65.7339C99.1375 61.4832 86.2246 57.761 86.2246 57.761L87.7411 189.004L117.059 189.026Z" fill="#DE6879"/>
    <path d="M103.641 65.7568C108.236 68.9276 111.223 77.5898 113.314 84.7126C115.405 91.8353 134.705 111.48 132.27 118.442C129.834 125.404 129.168 125.956 131.948 134.664C134.728 143.372 118.162 145.233 111.568 143.441C104.974 141.649 90.4063 132.665 90.4063 132.665L89.809 118.879L97.0006 119.89L103.641 65.7568Z" fill="#DE6879"/>
    <path d="M28.6222 65.7568C24.0268 68.9276 21.2696 77.5898 19.1788 84.7126C17.0879 91.8353 -2.28141 111.48 0.223038 118.442C2.72749 125.404 3.32488 125.956 0.544711 134.664C-2.23546 143.372 14.3307 145.233 20.925 143.441C27.5193 141.649 42.1094 132.665 42.1094 132.665L42.6839 118.879L35.4922 119.89L28.6222 65.7568Z" fill="#DE6879"/>
    <path d="M38.2264 381.203L35.4462 392.53H19.8451L27.6571 386.878L29.2885 381.203H38.2264Z" fill="#ECE0D3"/>
    <path d="M70.7613 381.203V392.53H86.3624L78.5733 386.878L79.7222 381.203H70.7613Z" fill="#ECE0D3"/>
    <path d="M26.8989 121.245L29.2885 83.4717H96.3573L98.609 127.656H26.8989V121.245Z" fill="#62309A"/>
    <path d="M63.5466 110.653C62.5663 110.663 61.5987 110.431 60.7292 109.978C59.8597 109.525 59.1149 108.865 58.5607 108.057C57.7605 106.853 57.4331 105.397 57.6416 103.967C57.7859 102.971 58.1796 102.027 58.7862 101.224C59.3927 100.42 60.1925 99.7832 61.1111 99.3715C61.8366 99.062 62.6204 98.9131 63.4088 98.935C64.7077 98.898 65.9818 99.2956 67.0292 100.065C68.0766 100.834 68.8373 101.931 69.1909 103.181C69.5444 104.432 69.4704 105.764 68.9807 106.968C68.4911 108.172 67.6137 109.177 66.4876 109.826C65.6004 110.363 64.5838 110.649 63.5466 110.653ZM63.3169 100.405C62.747 100.4 62.1827 100.517 61.6625 100.75C61.0677 101.015 60.5378 101.407 60.1098 101.898C59.6818 102.389 59.366 102.968 59.1845 103.593C59.003 104.219 58.96 104.877 59.0586 105.52C59.1572 106.164 59.395 106.779 59.7555 107.321C60.1869 107.936 60.7623 108.435 61.4312 108.775C62.1 109.116 62.8421 109.287 63.5926 109.274C64.3401 109.275 65.0754 109.085 65.7294 108.723C66.5845 108.23 67.2515 107.466 67.6259 106.553C68.0002 105.639 68.0607 104.627 67.7978 103.676C67.5349 102.724 66.9636 101.887 66.1734 101.295C65.3832 100.703 64.4189 100.39 63.4318 100.405H63.3169Z" fill="#794CBF"/>
    <path d="M110.304 118.81C110.304 118.81 106.766 111.917 104.606 111.917L101.872 118.235C101.872 118.235 90.2685 116.121 90.0847 116.834C89.9009 117.546 89.0507 120.763 89.0507 120.763L93.8528 121.015C93.8528 121.015 92.704 123.152 93.1176 123.842C93.491 124.366 93.9491 124.824 94.4732 125.197C94.4359 126.519 94.575 127.841 94.8868 129.126C95.3693 131.01 94.8868 132.642 96.1505 134.089C97.4142 135.537 108.144 133.699 109.615 133.285L110.051 133.101C111.375 132.448 112.493 131.442 113.284 130.196C114.074 128.949 114.506 127.508 114.532 126.032C114.558 124.556 114.177 123.102 113.432 121.828C112.686 120.554 111.604 119.51 110.304 118.81Z" fill="#E48868"/>
    <path d="M18.3976 121.843C18.3976 121.843 21.9589 114.95 24.0958 114.95L26.83 121.291C26.83 121.291 38.4562 119.154 38.64 119.867L39.6739 123.796L34.9407 124.14C34.9407 124.14 36.0666 126.277 35.676 126.944C35.3097 127.474 34.8504 127.933 34.3204 128.299C34.3585 129.621 34.2194 130.943 33.9068 132.228C33.4013 134.135 33.9068 135.744 32.6431 137.214C31.3794 138.685 20.6952 136.686 19.1788 136.272C19.0265 136.228 18.8799 136.167 18.7422 136.088C17.4189 135.445 16.2981 134.45 15.5026 133.212C14.707 131.974 14.2674 130.541 14.2318 129.07C14.1962 127.599 14.566 126.147 15.3008 124.872C16.0355 123.597 17.1069 122.549 18.3976 121.843Z" fill="#E48868"/>
    <path d="M16.5824 121.636C16.4799 121.614 16.3835 121.57 16.3001 121.506C16.2167 121.443 16.1483 121.361 16.0999 121.268C14.7976 119.04 13.2568 116.96 11.5046 115.065C11.4386 115 11.3861 114.924 11.3503 114.839C11.3145 114.754 11.296 114.663 11.296 114.571C11.296 114.479 11.3145 114.387 11.3503 114.303C11.3861 114.218 11.4386 114.141 11.5046 114.077C11.6334 113.95 11.8067 113.88 11.9871 113.88C12.1675 113.88 12.3408 113.95 12.4696 114.077C14.2816 116.052 15.8762 118.217 17.2258 120.533C17.3165 120.698 17.3384 120.892 17.2867 121.072C17.2351 121.253 17.1141 121.406 16.9501 121.498C16.8399 121.572 16.714 121.619 16.5824 121.636Z" fill="#C55469"/>
    <path d="M110.166 116.213H109.959C109.871 116.187 109.789 116.144 109.718 116.085C109.647 116.027 109.589 115.955 109.546 115.874C109.503 115.792 109.477 115.703 109.469 115.612C109.461 115.52 109.472 115.428 109.5 115.34C110.23 113.105 111.727 111.2 113.728 109.964C113.883 109.902 114.056 109.897 114.215 109.95C114.374 110.003 114.509 110.11 114.597 110.253C114.684 110.395 114.719 110.564 114.695 110.73C114.67 110.896 114.588 111.047 114.463 111.159C112.745 112.211 111.458 113.84 110.833 115.754C110.784 115.891 110.694 116.009 110.574 116.092C110.454 116.174 110.312 116.217 110.166 116.213Z" fill="#C55469"/>
    <path d="M39.7199 181.582C32.8269 181.283 25.7501 180.847 18.7881 180.318C18.6975 180.31 18.6094 180.283 18.529 180.24C18.4486 180.197 18.3775 180.139 18.3198 180.069C18.2621 179.998 18.219 179.917 18.1929 179.83C18.1668 179.742 18.1583 179.651 18.1678 179.56C18.1668 179.467 18.186 179.375 18.2239 179.291C18.2618 179.206 18.3176 179.13 18.3874 179.069C18.4573 179.008 18.5395 178.963 18.6285 178.937C18.7175 178.91 18.8112 178.903 18.903 178.917C25.796 179.468 32.8728 179.882 39.7888 180.18C39.9716 180.198 40.1414 180.283 40.2647 180.419C40.388 180.555 40.4559 180.732 40.4551 180.916C40.4433 181.101 40.3599 181.274 40.2226 181.398C40.0853 181.522 39.905 181.588 39.7199 181.582Z" fill="#C55469"/>
    <path d="M91.2564 181.168C91.0789 181.169 90.9074 181.104 90.7757 180.985C90.6439 180.866 90.5613 180.702 90.5442 180.525C90.5379 180.433 90.5504 180.34 90.5808 180.252C90.6112 180.165 90.6589 180.085 90.7211 180.016C90.7833 179.947 90.8587 179.892 90.9428 179.853C91.0269 179.814 91.1179 179.793 91.2105 179.79C98.132 179.311 105.076 179.257 112.004 179.629C112.097 179.632 112.188 179.653 112.272 179.692C112.356 179.731 112.431 179.786 112.494 179.855C112.556 179.924 112.604 180.004 112.634 180.092C112.664 180.179 112.677 180.272 112.671 180.364C112.671 180.458 112.652 180.551 112.614 180.636C112.576 180.722 112.521 180.799 112.452 180.862C112.382 180.924 112.301 180.972 112.212 181.001C112.123 181.03 112.029 181.04 111.935 181.031C105.046 180.661 98.1404 180.707 91.2564 181.168Z" fill="#C55469"/>
    <path d="M17.0649 143.694C16.8877 143.688 16.7189 143.617 16.5914 143.494C16.4639 143.371 16.387 143.204 16.3756 143.027C16.3726 142.937 16.3874 142.846 16.4192 142.762C16.451 142.677 16.4993 142.599 16.5612 142.533C16.6231 142.467 16.6974 142.414 16.7799 142.376C16.8624 142.339 16.9514 142.318 17.042 142.315C18.115 142.256 19.1584 141.941 20.0855 141.398C21.0126 140.854 21.7966 140.097 22.3725 139.19C22.4174 139.111 22.4779 139.042 22.5504 138.988C22.6229 138.933 22.7058 138.894 22.794 138.872C22.8822 138.85 22.9739 138.847 23.0634 138.862C23.1529 138.878 23.2384 138.911 23.3146 138.96C23.3943 139.008 23.4637 139.07 23.5186 139.145C23.5736 139.219 23.6129 139.304 23.6344 139.394C23.6558 139.484 23.6589 139.578 23.6434 139.669C23.628 139.76 23.5943 139.847 23.5443 139.925C22.8603 141.03 21.9165 141.951 20.7952 142.608C19.6739 143.265 18.4091 143.637 17.1109 143.694H17.0649Z" fill="#C55469"/>
    <path d="M114.624 142.315C114.511 142.346 114.392 142.346 114.279 142.315C111.308 140.617 108.725 138.316 106.697 135.56C106.644 135.486 106.606 135.402 106.586 135.314C106.565 135.225 106.562 135.133 106.577 135.044C106.592 134.954 106.625 134.868 106.673 134.791C106.721 134.714 106.784 134.647 106.858 134.595C106.931 134.542 107.015 134.504 107.104 134.484C107.192 134.463 107.284 134.46 107.373 134.475C107.463 134.49 107.549 134.523 107.626 134.571C107.703 134.619 107.77 134.682 107.823 134.756C109.73 137.306 112.138 139.441 114.899 141.028C115.053 141.124 115.165 141.274 115.212 141.449C115.259 141.624 115.238 141.81 115.152 141.97C115.099 142.067 115.023 142.149 114.931 142.209C114.839 142.269 114.733 142.306 114.624 142.315Z" fill="#C55469"/>
    <path d="M116.784 132.113H116.531C116.359 132.046 116.221 131.916 116.144 131.749C116.067 131.582 116.057 131.391 116.117 131.217C116.746 129.404 116.917 127.463 116.617 125.568C116.316 123.672 115.553 121.88 114.394 120.349C114.268 120.221 114.197 120.047 114.197 119.867C114.197 119.686 114.268 119.513 114.394 119.384C114.458 119.318 114.535 119.266 114.62 119.23C114.705 119.194 114.796 119.176 114.888 119.176C114.98 119.176 115.071 119.194 115.156 119.23C115.241 119.266 115.318 119.318 115.382 119.384C116.68 121.099 117.536 123.107 117.873 125.231C118.209 127.356 118.017 129.53 117.312 131.562C117.291 131.697 117.229 131.822 117.135 131.921C117.04 132.02 116.917 132.087 116.784 132.113Z" fill="#C55469"/>
    <path d="M12.9291 133.974C12.8106 133.975 12.694 133.945 12.5896 133.889C12.4853 133.833 12.3967 133.752 12.3317 133.653C11.3457 131.916 10.8838 129.93 11.0021 127.936C11.1203 125.942 11.8136 124.025 12.998 122.417C13.1077 122.271 13.271 122.174 13.452 122.148C13.633 122.122 13.8168 122.17 13.9631 122.279C14.1093 122.389 14.206 122.552 14.2318 122.733C14.2577 122.914 14.2106 123.098 14.1009 123.244C13.0842 124.635 12.4912 126.291 12.3934 128.011C12.2955 129.731 12.697 131.443 13.5495 132.94C13.6351 133.1 13.6566 133.286 13.6096 133.461C13.5627 133.636 13.4508 133.787 13.2967 133.882C13.1857 133.948 13.058 133.98 12.9291 133.974Z" fill="#C55469"/>
    <path d="M75.2188 180.732C75.1178 180.73 75.0185 180.706 74.9274 180.662C74.8363 180.619 74.7554 180.556 74.6903 180.479C64.5129 168.26 57.8494 153.503 55.4129 137.789C55.3865 137.609 55.432 137.426 55.5395 137.28C55.6471 137.134 55.808 137.036 55.9873 137.007C56.1697 136.98 56.3553 137.025 56.5053 137.132C56.6552 137.24 56.7578 137.401 56.7915 137.582C59.2063 153.053 65.7914 167.574 75.8391 179.583C75.9619 179.718 76.0298 179.894 76.0298 180.077C76.0298 180.26 75.9619 180.436 75.8391 180.571C75.6613 180.704 75.4386 180.761 75.2188 180.732Z" fill="#CFB199"/>
  </symbol>

  <use class="standford" xlink:href="#standford"></use>
  <use class="microsoft" xlink:href="#microsoft"></use>
</svg>
