<svg width="1920" height="466" viewBox="0 0 1920 466" fill="none" xmlns="http://www.w3.org/2000/svg">
<path d="M723.5 104.5C618.871 10.7931 879 -48 -262 -95.5L-247 -210L-120 -234.5L1878.45 -253C1880.99 -80.2487 2017.12 -311.454 2030.5 -201C2047.22 -62.9323 2540.13 -61.6673 2401 62C2261.87 185.667 1410.17 625.431 1226.21 403.322C1042.24 181.213 923.211 283.363 723.5 104.5Z" fill="url(#paint0_linear)"/>
<path d="M947.234 -6.47153C880.641 -82.2222 1046.2 -129.749 320 -168.147L329.547 -260.707L410.378 -280.512L1741.54 -289C1743.15 -149.351 1781.4 -278.858 1789.91 -189.569C1800.55 -77.9584 2020.34 -40.8277 2014.9 -40.8277C1995.81 -40.8277 1384.28 414.638 1267.19 235.09C1150.1 55.5415 1074.34 138.118 947.234 -6.47153Z" fill="url(#paint1_linear)"/>
<path d="M789.5 -198.5C684.871 -292.207 945 -351 -196 -398.5L-181 -513L-54 -537.5L1944.45 -556C1946.49 -417.035 1952.33 -148.413 1961.51 8.83887C2225.48 -102.387 2464.02 -238.055 2467 -241C2473.08 -247.003 1985.5 238.389 1968.78 100.322C1966.16 78.7196 1963.74 47.0707 1961.51 8.83887C1687.42 124.326 1385.92 213.464 1292.21 100.322C1108.24 -121.787 989.211 -19.637 789.5 -198.5Z" fill="url(#paint2_linear)"/>
<defs>
<linearGradient id="paint0_linear" x1="1045.5" y1="465.006" x2="1045.5" y2="-253" gradientUnits="userSpaceOnUse">
<stop stop-color="#48C7F0"/>
<stop offset="1" stop-color="#623695"/>
</linearGradient>
<linearGradient id="paint1_linear" x1="1248.92" y1="-272.833" x2="1100.1" y2="126.078" gradientUnits="userSpaceOnUse">
<stop stop-color="#623695"/>
<stop offset="1" stop-color="#48C7F0"/>
</linearGradient>
<linearGradient id="paint2_linear" x1="1263.5" y1="-528" x2="1111.5" y2="-10.4993" gradientUnits="userSpaceOnUse">
<stop stop-color="#623695"/>
<stop offset="1" stop-color="#48C7F0"/>
</linearGradient>
</defs>
</svg>
