<svg width="24" height="24" viewBox="0 0 24 24" fill="none" xmlns="http://www.w3.org/2000/svg">
<path d="M7.08 9.72L5.4 11.4L10.8 16.8L22.8 4.8L21.12 3.12L10.8 13.44L7.08 9.72ZM21.6 12C21.6 17.28 17.28 21.6 12 21.6C6.72 21.6 2.4 17.28 2.4 12C2.4 6.72 6.72 2.4 12 2.4C12.96 2.4 13.8 2.52 14.64 2.76L16.56 0.84C15.12 0.36 13.56 0 12 0C5.4 0 0 5.4 0 12C0 18.6 5.4 24 12 24C18.6 24 24 18.6 24 12H21.6Z" fill="#623695"/>
</svg>
