<svg width="30" height="45" viewBox="0 0 30 45" fill="none" xmlns="http://www.w3.org/2000/svg">
<style>
    .bar{
        -webkit-animation-name: svgAnimation; /* Safari 4.0 - 8.0 */
        -webkit-animation-duration: 4s; /* Safari 4.0 - 8.0 */
        animation-name: svgAnimation;
        animation-duration: 2s;
        animation-iteration-count: infinite;
    }

    /* Safari 4.0 - 8.0 */
    @-webkit-keyframes svgAnimation {
        0%   {y: 9;}
        50%  {y: 18;}
        100% {y: 9;}
    }

    /* Standard syntax */
    @keyframes svgAnimation {
        0%   {y: 9;}
        50%  {y: 18;}
        100% {y: 9;}
    }
</style>
<rect x="1.5" y="1.5" width="27" height="42" rx="13.5" stroke="#623695" stroke-width="3"/>
<rect class="bar" x="12" y="9" width="6" height="11" rx="3" fill="#623695"/>
</svg>
