<svg width="24" height="18" viewBox="0 0 24 18" fill="none" xmlns="http://www.w3.org/2000/svg">
<path d="M22.3132 0H1.6868C0.7568 0 0 0.7568 0 1.6868V15.9132C0 16.8432 0.7568 17.6 1.6868 17.6H22.3132C23.2432 17.6 24 16.8432 24 15.9132V1.6868C24 0.7568 23.2432 0 22.3132 0ZM2.4 3.2H6C6.2212 3.2 6.4 3.3792 6.4 3.6C6.4 3.8208 6.2212 4 6 4H2.4C2.1788 4 2 3.8208 2 3.6C2 3.3792 2.1788 3.2 2.4 3.2ZM5.6 5.6C5.6 5.8208 5.4212 6 5.2 6H4.4C4.1788 6 4 5.8208 4 5.6C4 5.3792 4.1788 5.2 4.4 5.2H5.2C5.4212 5.2 5.6 5.3792 5.6 5.6ZM2.4 5.2H2.8C3.0212 5.2 3.2 5.3792 3.2 5.6C3.2 5.8208 3.0212 6 2.8 6H2.4C2.1788 6 2 5.8208 2 5.6C2 5.3792 2.1788 5.2 2.4 5.2ZM6.4 14.8H2V11.6H6.4V14.8ZM6.4 5.6C6.4 5.3792 6.5788 5.2 6.8 5.2H7.2C7.4212 5.2 7.6 5.3792 7.6 5.6C7.6 5.8208 7.4212 6 7.2 6H6.8C6.5788 6 6.4 5.8208 6.4 5.6ZM11.6 14.8H7.2V11.6H11.6V14.8ZM8.4 5.6C8.4 5.3792 8.5788 5.2 8.8 5.2H9.6C9.8212 5.2 10 5.3792 10 5.6C10 5.8208 9.8212 6 9.6 6H8.8C8.5788 6 8.4 5.8208 8.4 5.6ZM11.484 5.884C11.408 5.956 11.308 6 11.2 6C11.096 6 10.9916 5.956 10.916 5.884C10.8436 5.808 10.8 5.704 10.8 5.6C10.8 5.496 10.8436 5.392 10.916 5.316C11.064 5.168 11.332 5.168 11.484 5.316C11.556 5.392 11.6 5.496 11.6 5.6C11.6 5.704 11.556 5.808 11.484 5.884ZM11.2 4H7.6C7.3788 4 7.2 3.8208 7.2 3.6C7.2 3.3792 7.3788 3.2 7.6 3.2H11.2C11.4212 3.2 11.6 3.3792 11.6 3.6C11.6 3.8208 11.4212 4 11.2 4ZM16.8 14.8H12.4V11.6H16.8V14.8ZM22 14.8H17.6V11.6H22V14.8ZM22 7.6H14.8V2.8H22V7.6Z" fill="white"/>
</svg>
